…
``` r
## Mau lihat dari nomor urut mana
caleg2019_clean %>% group_by(no_urut) %>% count(partai)
```

    ## # A tibble: 86 x 3
    ## # Groups:   no_urut [10]
    ##    no_urut partai       n
    ##      <dbl> <fct>    <int>
    ##  1       1 berkarya     6
    ##  2       1 demokrat     1
    ##  3       1 garuda       1
    ##  4       1 gerindra    11
    ##  5       1 golkar      11
    ##  6       1 nasdem       3
    ##  7       1 pan          3
    ##  8       1 perindo      8
    ##  9       1 pkb         12
    ## 10       1 pks         23
    ## # … with 76 more rows
…
    ## # A tibble: 4 x 2
    ##   pendidikan        n
    ##   <fct>         <int>
    ## 1 d4/s1            36
    ## 2 s2              214
    ## 3 s3              151
    ## 4 sma/sederajat     2

``` r
caleg2019_clean %>% group_by(gelar_akademis_depan) %>% summarise(n=n())
```

    ## # A tibble: 39 x 2
    ##    gelar_akademis_depan     n
    ##    <fct>                <int>
    ##  1 capt                     1
    ##  2 capt.drs                 1
    ##  3 dipl. ing                2
    ##  4 dr                     125
    ##  5 dr drg                   1
    ##  6 dr ir                    2
    ##  7 dr,hj                    1
    ##  8 dr.                      2
    ##  9 dr. dr                   1
    ## 10 dr. dra                  1
    ## # … with 29 more rows

``` r
caleg2019_clean %>% group_by(gelar_akademis_belakang) %>% summarise(n=n())
```

    ## # A tibble: 208 x 2
    ##    gelar_akademis_belakang            n
    ##    <fct>                          <int>
    ##  1 ,se                                1
    ##  2 a. mt                              1
    ##  3 a.md., s.e., s.h., m.h., m.mar     1
    ##  4 ak                                 1
    ##  5 apt                                3
    ##  6 apt, mp                            1
    ##  7 apt.,mm                            1
    ##  8 asc&t ,spkfr,mkes-mmr              1
    ##  9 b.ac                               1
    ## 10 b.eng., m.eng.                     1
    ## # … with 198 more rows

``` r
## ternyata untuk gelar_akademis_depan termasuk gelar nonakademik sehingga harus dibersihkan

## Coba lihat siapa saja yang tidak isi kolom pendidikannya
caleg2019_clean %>% group_by(pendidikan) %>% count(gelar_akademis_belakang)
```

    ## # A tibble: 240 x 3
    ## # Groups:   pendidikan [4]
    ##    pendidikan gelar_akademis_belakang     n
    ##    <fct>      <fct>                   <int>
    ##  1 d4/s1      ,se                         1
    ##  2 d4/s1      ak                          1
    ##  3 d4/s1      apt                         1
    ##  4 d4/s1      b.ac                        1
    ##  5 d4/s1      bsc                         1
    ##  6 d4/s1      m.ak.                       1
    ##  7 d4/s1      m.m                         1
    ##  8 d4/s1      mars                        1
    ##  9 d4/s1      mh                          1
    ## 10 d4/s1      mha., fs.                   1
    ## # … with 230 more rows
…
