…
frekuensi_kata
```

    ## # A tibble: 162 x 3
    ##    penutur      teks        n
    ##    <chr>        <chr>   <int>
    ##  1 Ira Koesno   paslon     76
    ##  2 Imam Priyono paslon     33
    ##  3 Joko Widodo  hukum      32
    ##  4 Ira Koesno   01         28
    ##  5 Ira Koesno   silakan    28
    ##  6 Ira Koesno   menit      23
    ##  7 Imam Priyono habis      21
    ##  8 Imam Priyono menit      21
    ##  9 Sandiaga Uno hukum      21
    ## 10 Ira Koesno   02         20
    ## # … with 152 more rows
…
frekuensi_kata_paslon
```

    ## # A tibble: 63 x 3
    ##    penutur   teks           n
    ##    <chr>     <chr>      <int>
    ##  1 Paslon 02 hukum         39
    ##  2 Paslon 01 hukum         33
    ##  3 Paslon 02 ya            21
    ##  4 Paslon 02 masyarakat    17
    ##  5 Paslon 02 rakyat        17
    ##  6 Paslon 02 korupsi       14
    ##  7 Paslon 02 orang         14
    ##  8 Paslon 01 ham           13
    ##  9 Paslon 02 negara        13
    ## 10 Paslon 02 indonesia     12
    ## # … with 53 more rows
…
### Leksikon Sentimen

``` r
leksikon_sentimen <- 
  bind_rows(
    read_table("https://github.com/masdevid/ID-OpinionWords/raw/master/positive.txt", col_names = "teks") %>% 
      mutate(sentimen = "Positif"),
    read_table("https://github.com/masdevid/ID-OpinionWords/raw/master/negative.txt", col_names = "teks") %>% 
      mutate(sentimen = "Negatif")
  )
leksikon_sentimen
```

    ## # A tibble: 3,584 x 2
    ##    teks           sentimen
    ##    <chr>          <chr>   
    ##  1 a+             Positif 
    ##  2 acungan jempol Positif 
    ##  3 adaptif        Positif 
    ##  4 adil           Positif 
    ##  5 afinitas       Positif 
    ##  6 afirmasi       Positif 
    ##  7 agilely        Positif 
    ##  8 agung          Positif 
    ##  9 ahli           Positif 
    ## 10 ahlinya        Positif 
    ## # … with 3,574 more rows
…
