…
    ## # A tibble: 6 x 2
    ##    line teks                                                               
    ##   <int> <chr>                                                              
    ## 1     1 shalom om sosiastu nama budaya. Saudara saudara sekalian hadirin h…
    ## 2     2 hormati pasangan calon nomor 1 yang saya hormati dan saya banggaka…
    ## 3     3 karena itu kami dalam menghadapi masalah hukum masalah korupsi mas…
    ## 4     4 kita yakin dengan lembaga lembaga yang bersih yang kuat, kita bisa…
    ## 5     5 " Kami akan memberdayakan badan pembinaan hukum nasional kami akan…
    ## 6     6 "sinkronisasi penyelarasan sehingga undang-undang peraturan peratu…

``` r
p_df %>% count(kata, sort=T)
```

    ## # A tibble: 751 x 2
    ##    kata      n
    ##    <chr> <int>
    ##  1 kita     86
    ##  2 yang     86
    ##  3 saya     67
    ##  4 itu      51
    ##  5 dan      46
    ##  6 tidak    37
    ##  7 ini      36
    ##  8 kami     36
    ##  9 di       34
    ## 10 untuk    32
    ## # … with 741 more rows

``` r
j_df %>% count(kata, sort=T)
```

    ## # A tibble: 727 x 2
    ##    kata      n
    ##    <chr> <int>
    ##  1 yang    114
    ##  2 dan      60
    ##  3 kita     54
    ##  4 saya     53
    ##  5 ada      43
    ##  6 tidak    40
    ##  7 itu      39
    ##  8 ini      34
    ##  9 hukum    32
    ## 10 di       26
    ## # … with 717 more rows
…
Karena bahasa lisan, ada stopword yang tidak sesuai dengan bahasa tulis
semisal “ya”. Akan lebih menarik jika kedua calon presiden dianalisis
secara bersamaan untuk melihat korelasi kecenderungan penggunaan kata.

``` r
## menggabungkan kedua calon presiden
p.j<-bind_rows(mutate(p_df_tidy, penutur="PrabowoSubianto"),
               mutate(j_df_tidy, penutur="JokoWidodo")) %>%  count(penutur, kata) %>% group_by(penutur) %>%  mutate(proporsi = n / sum(n)) %>% select(-n) %>% spread(penutur,proporsi)

p.j
```

    ## # A tibble: 931 x 3
    ##    kata  JokoWidodo PrabowoSubianto
    ##    <chr>      <dbl>           <dbl>
    ##  1 01     NA               0.000985
    ##  2 1       0.000993        0.00197 
    ##  3 10     NA               0.00197 
    ##  4 16     NA               0.000985
    ##  5 2       0.000993       NA       
    ##  6 200    NA               0.000985
    ##  7 2016    0.000993       NA       
    ##  8 2018    0.000993       NA       
    ##  9 250     0.000993       NA       
    ## 10 30     NA               0.00296 
    ## # … with 921 more rows
…
